<?xml version="1.0" encoding="utf-8"?>
<soap:Envelope xmlns:soap="http://schemas.xmlsoap.org/soap/envelope/" xmlns:xsi="http://www.w3.org/2001/XMLSchema-instance" xmlns:xsd="http://www.w3.org/2001/XMLSchema">
	<soap:Body>
		<LoadShipUnits xmlns="http://ScanData.com/WTM/">
			<SessionID>1</SessionID>
			<LoadShipUnitsParam>
				<LOAD_SHIP_UNITS_PARAMS MSN="1" xmlns="">
					<TRAILER>
						<DistributionCenter>7031</DistributionCenter>
						<CarrierTrailerNumber>UPSTEST</CarrierTrailerNumber>
						<CarrierID>UPS</CarrierID>
					</TRAILER>
					<CartonNumber>001000000000003589</CartonNumber>
					<CartonNumber>001000000000003572</CartonNumber>
					<CartonNumber>001000000000003633</CartonNumber>
				</LOAD_SHIP_UNITS_PARAMS>
			</LoadShipUnitsParam>
		</LoadShipUnits>
	</soap:Body>
</soap:Envelope>


