<?xml version="1.0" encoding="utf-8"?>
<soap:Envelope xmlns:soap="http://schemas.xmlsoap.org/soap/envelope/" xmlns:xsi="http://www.w3.org/2001/XMLSchema-instance" xmlns:xsd="http://www.w3.org/2001/XMLSchema">
	<soap:Body>
		<UpdateShipUnits xmlns="http://ScanData.com/WTM/">
			<SessionID>1</SessionID>
			<UpdateShipUnitsParams>
				<UPDATE_SHIP_UNITS_PARAMS xmlns="http://ScanData.com/WTM/XMLSchemas/WTM_XMLSchema_14.00.0000.xsd" MSN="1">
					<UPDATE_SHIP_UNIT Version="11.00.0000">
						<DistributionCenter>FFF</DistributionCenter>
						<CartonNumber>000123457400046280</CartonNumber>
						<Weight>5</Weight>
						<Length>5</Length>
						<Width>5</Width>
						<Height>5</Height>
					</UPDATE_SHIP_UNIT>
				</UPDATE_SHIP_UNITS_PARAMS>
			</UpdateShipUnitsParams>
		</UpdateShipUnits>
	</soap:Body>
</soap:Envelope>
