Sku ID, Cross Sell Skus
04-G1, "C10-3474,B3-3449,"
05-V3, "BB40,BB02,X050"
05-V4, "05-V1,8912,F130"
06-B1, "C10-3474,P118,B528"
06-C1, "B6-3431,B7-3509,B9-2935"
06-C2, "06-C2A,06-C6,06-C8"
06-C5, "07-V6,0RRB,EO-82DB"
06-C9, "T583,FMOR,"
06-G1, "04-G1,F094,"
06-H1, "T533,6027,T534"
06-M1, "06-M3,D5-3766,"
06-M2, "06-M1,06-M7,"
06-M4, "P692,P663,"
06-M7, "FFAR,F599,"
06-S1, "B23-3743,C10-3474,B3-3449"
06-SW1, "F448,D5-3765,0PRB"
06-T1, "6027,,B4-3717,B2-3719"
06-T2, "06-T1,6027,B4-3717"
06-T3, "06-T2,06-T1,6027"
06-T4, "P682,P517,P804"
06-V2, "BP,BB32,FF12"
07-A1, "B1-4000,07-A2,"
07-A2, "B2-2901,B4-3717,B2-3719"
07-C1, "B11-2921,B9-3725,"
07-C2, "07-C6,07-C5,07-C8"
07-C3, "B6-3733,B8-3728,"
07-C5, "B5-4060,B11-2921,B5-4011"
07-C6, "07-C5,B5-4060,B8-2920"
07-C8, "B6-3603,B9-3602,"
07-E2, "C52-3037,0PRB,"
07-E3, "07-E2,0PRB,"
07-E5, "07-M3,07-E2,"
07-G1, "07-T3,07-A2,C49-4039"
07-M1, "0PRB,C52-3037,"
07-M2, "07-E2,C5-3019,"
07-M2A, "07-E2,C15-3112,"
07-M3, "C15-3112,D5-3766,"
07-M4, "07-E3,07-V1,"
07-M5, "HSH,C32-3784,"
07-M6, "C35-2943,,"
07-M8, "07-M1,0PRB,"
07-T1, "B4-3717,B4-3718,"
07-T2, "07-T1,07-T3,"
07-T3, "07-A2,B2-2901,B2-3719"
07-V1, "D2-3759,C7-3061,C15-3502"
07-V2, "07-V3,,0RRB,07-V6"
07-V3, "0RRB,07-V6,07-V1"
07-V4, "07-V3,0RRB,07-V6"
07-V5, "07-V4,07-V3,0RRB"
07-V6, "07-V1,D2-3759,8224"
08-V1, "0RRB,08-V4,D2-3250"
08-V2, "08-V1,08-V3,C1-4028"
08-V3, "08-V4,C18-3066,"
08-V4, "EO-82DB,8224,D2-3250"
0BBB, "0BBG,X700,BY88"
0BBG, "P297,P298,BY88"
0BGB, "C6-3063,2433,X324"
0BGG, "C6-3064,2434,X324"
0PRB, "D5-3766,C15-3774,"
0RRB, "D8-82RB,EO-82DB,D2-3250"
0YRB, "B3-3449,D5-3766,FMRP"
1X71, "X172,X155,X154"
2003, "BB04,X343,"
2006, "BB32,A16-BP,P659"
2009, "B508,6049,6050"
2019, "2529,2018,GC01"
2051, "X050,X018,X092"
2061, "2049,2009,2142"
2103, "X109,X246,X098"
2142, "2009,2049,2061"
2149, "2201,E2BC,A10-E1"
2201, "X074,A10-E1,X342"
2215, "BB02,8912,2216"
2216, "8912,9155,C191"
2256, "2711,2266,2304"
2276, "2266,2711,2703"
2307, "F069,2256,B24-3284"
2314, "2256,2266,2703"
2350, "2256,2266,2314"
2389, "2256,2711,2704"
2433, "2439,C24-3481,BY25"
2434, "2440,C24-3521,BY25"
2435, "C134,C8-3022,BY25"
2439, "X064,2433,2462"
2440, "2434,FF30,2461"
2453, "2450,2449,HF28"
2454, "2822,X701,2466"
2465, "2493,BY92,BY39"
2466, "2465,2493,"
2471, "X324,2469,2472"
2473, "2474,H045,2453"
2474, "2463,2451,X907"
2493, "2439,2440,"
2496, "2493,BY39,"
2497, "2493,BY39,"
2498, "H044,2546,H057"
2515, "H023,H047,P641"
2528, "2536,JN68,GC01"
2571, "X050,BB02,FFF2"
2703, "2256,2266,2716"
2728, "2732,2729,"
2730, "2729,,"
2731, "2730,2732,2729"
2732, "2729,,"
2822, "X701,2466,2465"
2831, "2832,2833,"
2832, "2831,2836,"
2833, "2836,2832,"
2834, "2835,2831,"
2835, "2831,2834,"
2836, "2832,2833,"
2851, "CT15,X524,A16-BP"
50-34190, "50-34415,50-37275,50-34433"
50-34316, "50-34349,50-34433,50-34415"
50-34318, "50-34349,50-34416,50-34415"
50-34349, "50-34318,50-37274,50-34415"
50-34415, "50-37274,50-34349,50-34316"
50-34416, "50-37274,50-34349,50-37275"
50-37024, "50-37053,50-37036,50-37023"
50-37026, "50-37034,50-37049,50-37036"
50-37034, "50-37050,50-37024,50-37025"
50-37036, "50-37049,50-37026,50-37053"
50-37049, "50-37036,50-37026,50-37064"
50-37050, "50-37034,50-37026,50-37069"
50-37053, "50-37024,50-37034,50-37068"
50-37274, "50-34349,50-34416,50-34318"
50-37275, "50-34416,50-34318,50-34418"
56-30229, "56-30231,56-39068,56-39711"
56-30231, "56-30229,56-34187,56-39711"
56-34187, "56-39068,56-39711,56-34279"
56-34207, "56-37233,56-34279,56-39071"
56-34278, "56-34207,56-39384,56-39071"
56-34279, "56-39710,56-39067,56-39712"
56-34280, "56-39712,56-39384,56-39067"
56-39071, "56-34207,56-37233,56-34279"
56-39384, "56-34207,56-39068,56-37233"
56-39710, "56-39067,56-34279,56-39071"
56-39711, "56-39712,56-39068,56-39384"
56-39712, "56-39711,56-34280,56-39068"
56-40762, "60-38324,60-38282,60-38319"
5G21, "X170,BB32,BP"
5G26, "X098,S031,X262"
60-32473, "60-32606,60-32630,60-38586"
60-32589, "60-32606,60-32629,60-32651"
60-32606, "60-32630,60-39889,60-32473"
60-32629, "60-32589,60-32651,60-32630"
60-32630, "60-38586,60-38585,60-38286"
60-32651, "60-39889,60-32630,56-40762"
60-38282, "60-38585,60-38319,60-38278"
60-38284, "60-39889,60-38319,60-32606"
60-38286, "60-32630,60-38319,60-38277"
60-38319, "60-38286,60-38284,60-38282"
60-38324, "60-38585,60-38284,60-38279"
60-38585, "60-38282,60-38284,60-39889"
60-38586, "60-38585,60-32630,60-32629"
60-39889, "60-32630,60-38282,60-38286"
6026, "6027,EO-6023,"
6027, "C52-3037,C18-3066,"
6049, "GB50,8912,C18-3066"
6050, "GB49,8912,C18-3066"
6055, "GB50,8912,C18-3066"
6056, "GB50,8912,C18-3066"
6057, "GB49,8912,C18-3066"
6058, "GB49,8912,C18-3066"
6101, "A16-BP,BB32,X339"
6104, "A213,2586,2515"
6X00, "8912,X604,2103"
6X34, "X164,X109,X348"
6X39, "XX55,D025,BB32"
6X47, "C191,X649,8912"
7X12, "7X18,X726,X717"
7X18, "B209,F469,F468"
8012, "D4-3763,D5-3766,8218"
8031, "C15-3112,812M,89RB"
8113, "8212,8218,8224"
812M, "8763,8766,8918"
8203, "EO-823B,EO-826B,EO-82DB"
8206, "8212,8218,8224"
8212, "8218,8224,8236"
8218, "8224,D2-3250,8236"
821W, "D4-3251,D4-3761,"
8224, "D2-3250,8236,"
8250, "8936,8924,"
8251, "8761,8763,8924"
826B, "82DB,8218,8224"
83-38003, "83-38191,83-38315,83-38179"
83-38127, "83-38245,83-38182,83-38240"
83-38179, "83-40188,83-38003,83-38191"
83-38182, "83-38245,83-38240,83-38127"
83-38189, "83-38190,83-38127,83-40188"
83-38190, "83-38189,83-38127,83-38182"
83-38191, "83-38179,83-40188,83-38315"
83-38240, "83-38245,83-38182,83-39810"
83-38242, "83-39978,83-38179,83-38003"
83-38245, "83-38127,83-38182,83-38240"
83-38315, "83-38240,83-38179,83-38191"
83-38316, "83-40260,83-40188,83-38179"
83-39810, "83-38127,83-38240,83-38245"
83-39811, "83-38179,83-38316,83-38003"
83-39973, "83-39811,83-38003,83-38179"
83-39978, "83-38242,83-38191,83-40260"
83-40188, "83-40260,83-38316,83-38240"
83-40260, "83-40188,83-38316,83-39978"
84-22464, "84-22767,84-34409,84-34359"
84-22767, "84-22464,84-34409,84-22962"
84-22962, "84-34408,84-22464,84-22767"
84-34359, "84-22767,84-22464,84-34408"
84-34408, "84-22464,84-34409,84-34411"
84-34409, "84-22767,84-34407,84-22962"
8484, "8906,893B,8912"
8759, "8924,8936,8250"
8761, "8978,8250,8924"
8762, "8761,8763,8918"
8763, "8761,8918,8924"
8765, "891P,89RB,8761"
8766, "8761,8763,8924"
8906, "8912,8918,8924"
8912, "8918,8924,8936"
8918, "8924,8936,8763"
891P, "8763,822P,89RB"
891W, "89RB,8924,8936"
891Y, "8251,8924,8936"
8924, "8250,8936,"
893B, "896B,89DB,8912"
8966, "8912,8918,8924"
896B, "89DB,F140,8924"
8977, "891P,8985,812M"
8978, "8250,8924,8936"
8985, "8918,8924,8936"
89DB, "8918,8924,F140"
89RB, "8763,8766,8918"
8G22, "G817,F469,F468"
8G30, "8G34,G832,G833"
8G34, "G819,G817,F469"
8X12, "8912,8918,8924"
8X57, "X523,BB32,BP"
9027, "2216,8912,X156"
9153, "BB32,A16-BP,P659"
9155, "XX04,X932,8912"
A017, "0BGG,A17-SDB,P665"
A018, "0BGB,A17-SDG,P666"
A12-M1, "A13-M3,C18-3066,"
A13-M2, "A12-M1,A13-M3,C13-3037"
A15-CS, "2003,0PMU,C140"
A15-TAB, "C4-3085,X193,B508"
A16-BP, "BB32,CT15,C118"
A213, "H047,2019,2544"
AB, "C52-3037,8218,C7-3061"
ABCO, "C202,2431,FF74"
ABCW, "8212,6051,C52-3037"
ANN, "C52-3037,C18-3066,8218"
ANV, "C52-3037,AB,"
B1-3701, "C52-3037,C18-3066,C7-3061"
B1-3705, "C10-3474,B13-3501,EO-6023"
B1-4003, "07-A1,07-T2,07-T3"
B13-3501, "C19-3071,B22-3265,"
B13-3737, "C20-3118,C15-3502,"
B18-3742, "C2-6030,C21-3122,6027"
B2-2901, "0YRB,B4-3717,"
B2-3713, "07-T2,07-G1,07-A2"
B2-3719, "C52-3758,B4-3718,C52-3752"
B20-3266, "C4-3020,C7-3061,C20-3118"
B202, "B200,B201,"
B208, "B211,,"
B209, "B208,5B14,"
B21-3260, "B13-3501,EO-6025,"
B21-3462, "C7-3061,C20-3118,"
B23-3743, "C10-3474,0YRB,B3-3449"
B24-3745, "C5-3089,D4-3251,"
B24-8266, "B24-3745,C52-3037,C5-3089"
B3-3449, "B22-3265,C34-3782,D6-2978"
B4-3717, "B2-3719,B4-3718,"
B4-3718, "C1-4036,C52-3752,"
B404, "B400,B209,B208"
B500, "X165,B512,B513"
B517, "B518,B209,B208"
B518, "B209,B211,"
B519, "B517,B518,B209"
B525, "B507,B508,B527"
B535, "B529,X260,"
B536, "B527,B513,B528"
B538, "B535,B529,"
BB, "HBB,C50-3746,C49-4038"
BB02, "BB40,BB39,FFFR"
BB04, "2003,C172,C33-2960"
BB19, "BB02,BB39,BB47"
BB31, "BB47,BB19,BB02"
BB32, "T553,C50-3522,"
BB39, "BB02,BB19,BB47"
BB40, "BB02,BB39,BB19"
BB42, "BB02,BB19,BB40"
BB47, "BB40,BB39,"
BCA, "D5-821P,B20-3266,"
BGMR, "0BSD,0NBB,MB45"
BH, "PMU,FFFR,8012"
BP, "FF12,C50-3522,"
BPP, "BB,06-V2,"
BY41, "X324,X815,C8-3022"
BY88, "BY92,BY39,"
BY92, "2439,2440,"
BY97, "MS09,BY39,"
BYS, "THY,C49-4039,C1-4034"
C011, "C041,C214,C103"
C023, "C114,A219,C192"
C1-4029, "0PRB,C15-3112,D5-3766"
C10-3081, "B21-3260,B13-3501,EO-6025"
C10-3474, "0YRB,B3-3449,"
C11-3035, "C2-3434,THY,B3-3449"
C11-3435, "C10-3081,B13-3501,6027"
C12-3014, "C13-3771,C19-3071,EO-6023"
C13-3065, "C2-6030,6027,"
C13-3771, "EO-6023,06-M3,B22-3265"
C132, "C18-3066,MK28,2435"
C133, "C18-3066,2435,BY25"
C134, "C8-3022,2439,2440"
C15-3112, "C16-3027,D5-3766,D4-3763"
C15-3502, "C15-3775,C52-3750,"
C15-3774, "C15-3775,D6-2978,"
C16-3025, "C15-3112,C16-3027,"
C16-3027, "D5-3766,D4-3763,C15-3774"
C17-3575, "D4-3763,C15-3774,"
C17-6029, "THY,B3-3449,EO-6023"
C18-3066, "C4-3020,C7-3061,"
C2-3434, "04-G1,C2-6030,6027"
C2-6030, "C21-3122,8012,6027"
C21-3122, "B3-3449,B22-3265,"
C214, "C103,C041,C223"
C223, "JN93,C38-2965,"
C233, "BB32,C237,"
C237, "C50-3522,,"
C3-3448, "B4-3712,C15-3775,"
C38-2962, "P317,C37-3460,C35-2943"
C39-2942, "P111,P106,"
C4-3020, "C7-3061,C20-3118,"
C40-2991, "B507,B508,"
C40-2996, "B527,B513,C40-3788"
C40-3536, "C40-2999,B527,B513"
C49-4038, "C49-4039,8012,"
C5-3019, "B20-3266,C18-3066,C4-3020"
C5-3089, "C18-3066,C4-3020,C7-3061"
C5-3847, "B13-3501,B22-3265,"
C50-3522, "8224,D6-2978,"
C50-3746, "B21-3260,6027,"
C51-3481, "2491,2439,"
C51-3521, "C18-3066,B21-3462,C7-3061"
C51-3747, "C10-3474,2465,2493"
C51-3748, "C51-3521,C18-3066,"
C52-3037, "C18-3066,C7-3061,"
C52-3751, "C52-3752,C53-3755,C52-3750"
C52-3752, "C53-3755,,"
C52-3758, "C53-3753,C52-3752,"
C53-3753, "C52-3752,C53-3755,"
C53-3754, "C53-3755,,"
C54-3467, "BH,B13-3501,6027"
C54-3756, "C3-3448,B4-3712,"
C54-3757, "B3-3449,C54-3756,"
C6-3067, "C13-3065,C2-6030,6026"
C7-3061, "C20-3118,C15-3502,"
C7-3072, "6027,C52-3037,6026"
C7-3121, "C21-3122,C5-3019,"
C8-3058, "C4-3020,C7-3061,C20-3118"
C8-3078, "C1-4029,C22-3062,"
CB01, "CB02,CB06,S32-3169"
CGR, "CNG,C10-3474,"
CNG, "C54-3757,C21-3122,C54-3756"
CP, "P244,C38-2965,C34-2956"
CRP, "P691,T506,C28-3441"
CS, "C7-3072,FFPM,6027"
D025, "B202,BB32,T553"
D028, "X395,X393,X726"
D2-3250, "8236,,"
D2-3759, "8218,8224,D2-3250"
D3-821Y, "8224,8236,"
D4-2977, "D4-3251,D2-3759,8218"
D4-3251, "D2-3759,D4-3761,D2-3250"
D4-3761, "8224,D6-2978,"
D4-3762, "C15-3502,D2-3250,"
D4-3763, "C15-3774,D4-3761,D6-2978"
D402, "D400,D401,D404"
D5-3036, "C16-3025,C15-3112,C16-3027"
D5-3484, "8206,EO-823B,8212"
D5-3765, "D5-821P,D4-3251,B21-3462"
D5-3766, "C15-3774,D4-3761,"
D5-821P, "B20-3266,B21-3462,D4-3763"
D6-2978, "D2-3250,8236,"
D6-3031, "C15-3112,C16-3027,D5-3766"
D7-2985, "8218,8224,8236"
D8-82RB, "C16-3027,D5-3766,D4-3763"
E024, "E022,E025,E023"
EO-6022, "EO-6023,6027,"
EO-6024, "EO-6025,B3-3449,"
EO-6033, "C54-3467,BP,C50-3522"
EO-6059, "P653,C32-3784,C35-2943"
EO-6103, "P120,P123,P125"
EO-823B, "EO-826B,EO-82DB,8212"
EO-826B, "EO-82DB,F140,8224"
EO-82DB, "F140,8218,8224"
F002, "8012,D6-2978,D5-3766"
F003, "821P,D4-2977,8012"
F007, "8012,D6-2978,D5-3766"
F057, "T506,FMOR,"
F058, "T506,FMOR,"
F059, "T506,FMOR,"
F076, "F234,C4-3085,"
F086, "FU18,07-E5,"
F087, "07-E5,B16-3738,"
F094, "6027,B3-3449,"
F097, "D5-821P,F098,C18-3066"
F103, "821P,D4-2977,8012"
F140, "8218,8224,D2-3250"
F172, "F784,,"
F178, "FFCB,FFOL,F934"
F219, "896B,89DB,F224"
F224, "8212,8218,8224"
F231, "F093,8113,8212"
F234, "H059,C15-3502,"
F345, "B16-3228,F063,"
F356, "06-M7,FFAR,"
F364, "C2-6030,C5-3019,"
F368, "FFLI,C17-3021,07-V1"
F371, "F378,F915,"
F387, "F384,F383,"
F388, "F664,,"
F416, "FBFR,07-M8,0PRB"
F425, "F378,F915,"
F440, "C49-4039,8012,"
F454, "F378,F915,"
F455, "F378,F915,"
F468, "W225,W202,8224"
F469, "F468,W226,W227"
F488, "V850,F494,W227"
F492, "F494,V856,W227"
F494, "FFAC,FU75,8012"
F495, "08-V4,T555,F196"
F570, "F571,T583,FMOR"
F571, "T583,FMOR,"
F572, "F570,F571,T583"
F573, "F571,T583,FMOR"
F645, "P322,H062,F643"
F647, "F797,,"
F656, "F571,T583,FMOR"
F664, "F388,,"
F668, "07-T1,B4-3717,"
F696, "08-V3,FD01,F196"
F719, "896B,89DB,F724"
F724, "8212,8218,8224"
F731, "F093,8113,8212"
F735, "FFPM,F770,"
F768, "F094,6027,"
F779, "F778,6027,"
F781, "F870,H062,F643"
F782, "F781,F643,H062"
F783, "F172,T555,F063"
F784, "06-C10,F172,F063"
F798, "F573,P274,"
F806, "FF03,FFF2,FF54"
F807, "FF02,FBFR,"
F863, "07-S1,F645,T586"
F865, "C2-6030,C22-3062,"
F870, "F643,F645,P322"
F872, "F874,F876,"
F874, "F876,,"
F875, "F873,,"
F877, "F468,J117,"
F900, "F094,C10-3474,0YRB"
F911, "FF44,F063,"
F914, "C2-6030,,"
F922, "07-C5,FU05,"
FB, "C5-3089,C4-3020,"
FD01, "C18-3066,F196,"
FD02, "08-V1,F191,FD01"
FF02, "B23-3743,8012,D6-2978"
FF03, "FFF2,D5-3765,B14-3229"
FF10, "FF92,FFCC,04-C2"
FF11, "F140,8218,8224"
FF12, "F140,8218,8224"
FF13, "F140,8212,8224"
FF32, "F094,T540,FB"
FF37, "P401,6027,"
FF44, "C16-3027,,"
FF49, "D5-821P,,"
FF51, "FF54,FFRG,6027"
FF52, "FF67,0YRB,D5-3766"
FF54, "06-SW1,821W,"
FF58, "FF54,FFRG,8012"
FF62, "FF71,C12-3014,"
FF71, "C12-3014,F063,6027"
FF72, "F636,6027,6027"
FF74, "F779,F778,6027"
FF78, "C12-3014,C19-3071,"
FF79, "FF63,FF72,F779"
FF86, "FP89,F063,6027"
FF87, "0RRB,C52-3037,C18-3066"
FF90, "F784,06-C10,FP89"
FF91, "F735,T511,F770"
FF93, "FFER,V850,"
FF98, "FF87,B1-3701,"
FF99, "FP89,F784,07-V4"
FFAC, "FU75,FFFR,F468"
FFBC, "FFRG,0YRB,"
FFBS, "FFBW,FFSD,"
FFBW, "F859,F645,T586"
FFCB, "FFBO,FPPR,FF02"
FFCC, "FFRW,F095,B10-3722"
FFCR, "C7-3121,P517,C16-3025"
FFDL, "08-V1,08-V3,0PRB"
FFER, "F388,F664,V851"
FFF1, "8218,8224,8236"
FFF2, "FF03,0RRB,EO-82DB"
FFF5, "05-V1,8912,F130"
FFFJ, "FFSA,FF72,6027"
FFFR, "0RRB,EO-82DB,8218"
FFGD, "FFGT,BYS,C49-4039"
FFGR, "FFFR,0RRB,B208"
FFGS, "FFPV,F770,"
FFGT, "F782,T521,F870"
FFLG, "FFSD,F645,F643"
FFMC, "FF63,FF72,6027"
FFML, "FFSD,P322,F643"
FFMO, "F656,F573,T583"
FFMR, "FF67,FFRG,6027"
FFPM, "C21-3122,B3-3449,"
FFPO, "FFBC,FFRG,"
FFPP, "T510,F798,F573"
FFPR, "FFF2,F494,"
FFPS, "FF67,FFRG,FF52"
FFPV, "F770,T511,"
FFRB, "FFFR,8212,EO-82DB"
FFRG, "06-M7,8012,"
FFRS, "FFFR,0RRB,EO-82DB"
FFRT, "FFAR,FFKT,"
FFSA, "B1-3705,F779,6027"
FFSB, "C10-3474,B3-3449,"
FFSD, "F645,F643,F781"
FFSF, "F416,F418,0RRB"
FFSM, "FFSA,FF74,"
FFTB, "C30-3249,C26-3583,C29-3777"
FFWB, "FF32,821W,F234"
FFYB, "F768,FF74,C10-3474"
FM03, "F573,F098,04-A2"
FMRP, "FM00,FMOR,"
FP72, "FP76,,"
FP74, "FP77,,"
FP80, "FFFR,F469,F468"
FP89, "F378,F915,F172"
FPMR, "FU18,FP89,"
FPPR, "FF54,V855,"
FRRR, "FPPR,F934,"
FSWR, "F467,F887,"
FU18, "FP89,07-E5,B17-3487"
FU45, "F378,F915,"
FU54, "F467,F439,T581"
FU55, "F467,FBFR,8012"
FU61, "F394,07-T3,T646"
FU75, "FFFR,F468,8224"
FU76, "F440,8012,"
FVP2, "B18-3742,BYS,F672"
FVP3, "F378,F915,"
FVP4, "B1-3701,B18-3742,"
FVP5, "FFGT,FF52,BYS"
FVP6, "F865,PMU,C2-6030"
FWBM, "FU58,FU57,"
G004, "G069,G067,G027"
G026, "G027,G041,GG59"
G027, "G071,G067,G076"
G051, "G041,G027,8912"
G063, "G065,G075,G076"
G065, "G063,G075,G076"
G067, "G027,G004,G074"
G069, "G067,G004,G071"
G071, "G072,G073,G074"
G072, "G071,G073,G074"
G073, "G071,G072,G074"
G074, "G072,G071,G073"
G075, "G063,G065,G027"
G076, "G071,G067,G072"
G511, "W208,W204,W201"
G526, "G502,G511,"
G539, "S502,B513,"
G540, "X264,X155,B518"
G801, "G805,B202,B200"
G805, "X098,B200,"
G811, "X544,X390,X352"
G818, "8G22,G819,G817"
G819, "G817,F469,F468"
G820, "8G22,F468,"
G832, "G833,G831,"
G840, "F439,G841,G846"
G856, "FFGC,F468,G858"
GC01, "H055,W206,H059"
GC09, "GC10,GC11,GC12"
GC10, "GC09,GC11,GC12"
GC11, "GC12,8912,GC01"
GC12, "8924,GC01,"
GC14, "GC15,GC16,GC17"
GC15, "GC16,GC17,GC01"
GC16, "GC17,8912,GC01"
GC17, "8924,GC01,"
GG59, "G027,G026,G041"
H023, "H040,P292,X050"
H024, "H046,X109,H042"
H031, "H037,H048,P505"
H036, "H023,H047,GB50"
H038, "H024,H046,X109"
H039, "H048,B513,2515"
H041, "H031,H039,H037"
H044, "H101,H055,"
H045, "2493,BY39,"
H046, "H024,2103,U404"
H055, "F140,W206,H059"
H057, "h056,h055,w206"
H061, "H055,W206,"
H101, "h055,h059,w206"
H116, "H133,W512,H055"
HBB, "C50-3746,X170,X383"
HD01, "HD02,HD03,HD05"
HD02, "HD01,HD03,HD05"
HD03, "HD01,HD02,HD05"
HD05, "HD01,HD02,HD03"
HD21, "2822,X701,2466"
HD50, "HD52,HD53,HD51"
HD51, "HD53,HD50,HD52"
HD52, "HD50,HD53,HD51"
HD53, "HD50,HD52,HD51"
HF04, "JW04,H115,"
HF33, "HF32,HF35,C192"
HF34, "HF32,HF33,C192"
HF36, "HF37,C206,"
HF45, "HF33,HF34,"
HF46, "HF33,HF32,HF34"
INSP, "C21-3122,B3-3449,6027"
J102, "J100,J106,J104"
J103, "JN91,JB31,"
J105, "J100,JN91,J106"
J106, "J104,,"
J137, "J132,J126,J124"
JB08, "JN68,JX01,JN70"
JB18, "JB02,JS17,JN67"
JN67, "JN68,JS07,"
JN90, "JN91,JN95,"
JN92, "J103,J115,J116"
JW03, "H116,H114,GC01"
LAP, "D5-3036,C51-3521,"
LLL, "PMU,THY,C10-3474"
M001, "M019,M016,M753"
M002, "M001,M024,M102"
M003, "M005,M022,M020"
M004, "M006,M015,M022"
M005, "M003,M006,M022"
M006, "M013,M007,M009"
M007, "M015,M013,M003"
M008, "M019,M024,M023"
M009, "M013,M021,M020"
M010, "M016,M005,M023"
M013, "M020,M016,M005"
M015, "M016,M021,M013"
M016, "M008,M009,M013"
M017, "M020,M021,M005"
M019, "M008,M024,M002"
M020, "M015,M021,M007"
M021, "M020,M003,M015"
M022, "M003,M005,M015"
M024, "M013,M016,M006"
M026, "M020,M005,M022"
M027, "M008,M023,M003"
M101, "M124,M102,M123"
M102, "M124,M101,M114"
M103, "M124,M106,M114"
M104, "M124,M108,M109"
M105, "M124,M111,M104"
M106, "M124,M103,M113"
M107, "M124,M107,M120"
M108, "M124,M104,M110"
M109, "M124,M112,M111"
M110, "M124,M111,M105"
M111, "M124,M110,M108"
M112, "M124,M108,M115"
M113, "M124,M106,M103"
M114, "M124,M106,M104"
M115, "M124,M112,M104"
M117, "M124,M105,M108"
M118, "M124,M103,M102"
M119, "M124,M120,M107"
M120, "M124,M107,M114"
M123, "M124,M108,M104"
M201, "M207,M215,M208"
M202, "M209,M213,M206"
M204, "M208,M202,M209"
M206, "M209,M215,"
M207, "M206,M215,M202"
M208, "M201,M213,M211"
M209, "M202,M201,M213"
M211, "M208,M201,M217"
M212, "M206,M204,M213"
M213, "M202,M209,M215"
M214, "M213,M212,M201"
M215, "M201,M208,M211"
M216, "M202,M209,M201"
M217, "M211,M208,"
M218, "M208,M217,"
M300, "M304,M301,M320"
M301, "M305,M321,M311"
M302, "M306,M311,M322"
M304, "M321,M323,M305"
M305, "M322,M324,M306"
M306, "M308,M326,M324"
M308, "M320,M300,M324"
M311, "M323,M305,M313"
M312, "M324,M306,M308"
M313, "M325,M312,M853"
M315, "M320,M312,M304"
M320, "M306,M311,M305"
M321, "M322,M323,M305"
M322, "M300,M304,M308"
M323, "M301,M305,M311"
M324, "M323,M306,M320"
M325, "M311,M320,M300"
M326, "M325,M321,M301"
M400, "M401,M405,M419"
M401, "M402,M404,M410"
M402, "M407,M411,"
M403, "M422,M408,M412"
M404, "M405,M406,M407"
M405, "M420,M413,M419"
M406, "M415,M420,M405"
M407, "M421,M406,"
M408, "M417,M422,M400"
M409, "M413,M405,"
M410, "M413,M405,M928"
M411, "M415,M420,M409"
M412, "M421,M410,M419"
M413, "M418,M422,M402"
M414, "M419,M413,M405"
M415, "M420,M414,M422"
M417, "M422,M419,M424"
M418, "M413,M417,M420"
M419, "M414,M400,M421"
M420, "M415,M408,M422"
M421, "M409,M425,M426"
M422, "M400,M410,M413"
M424, "M405,M427,"
M425, "M422,M414,M418"
M426, "M412,M414,M420"
M427, "M401,M404,M419"
M501, "M509,M533,"
M502, "M535,M526,M509"
M503, "M522,,"
M504, "M513,M516,"
M505, "M528,M517,M526"
M507, "M535,M537,M520"
M509, "M526,M517,M534"
M510, "M538,M533,M526"
M513, "M504,M509,"
M515, "M538,M541,M539"
M516, "M520,M538,M539"
M517, "M526,M539,M536"
M518, "M519,M528,M534"
M519, "M518,,"
M520, "M516,M538,M533"
M521, "M535,M517,M526"
M522, "M528,M537,M538"
M523, "M533,M509,M529"
M526, "M517,M535,M539"
M527, "M520,M509,M536"
M528, "M515,M510,M520"
M529, "M527,M510,M515"
M530, "M538,M520,M509"
M533, "M523,M509,M520"
M534, "M539,M517,M533"
M535, "M536,M521,M526"
M536, "M535,M509,M526"
M537, "M522,M538,M528"
M538, "M541,M520,M515"
M539, "M517,M522,M518"
M541, "M535,M521,M517"
M542, "M543,M544,M545"
M543, "M544,M545,M546"
M544, "M545,M542,M543"
M545, "M542,M543,M544"
M546, "M543,M544,M545"
M547, "M546,M542,M543"
M568, "M657,M743,M605"
M569, "M571,M568,N206"
M571, "M569,M568,N208"
M573, "M922,M854,M213"
M574, "M202,M568,M414"
M600, "M601,M611,M607"
M601, "M602,M612,M609"
M602, "M603,M613,M608"
M603, "M604,M605,M606"
M604, "M605,M606,M607"
M605, "M607,M608,M609"
M606, "M605,M607,M608"
M607, "M608,M609,M610"
M608, "M605,M606,M607"
M609, "M610,M608,"
M610, "M606,M607,M608"
M611, "M601,M605,M607"
M612, "M602,M606,M605"
M613, "M603,M608,M610"
M614, "M615,M616,M617"
M615, "M614,M616,M617"
M616, "M614,M615,M617"
M617, "M616,M614,M615"
M618, "M603,M613,M608"
M625, "M637,M661,M636"
M628, "M648,M649,M650"
M629, "M632,M633,M634"
M630, "M632,M633,M636"
M632, "M630,M633,M636"
M633, "M634,M632,M625"
M634, "M633,M630,M632"
M635, "M639,M637,M638"
M636, "M630,M634,M637"
M637, "M638,M633,M634"
M638, "M637,M634,M630"
M639, "M635,M634,M636"
M641, "M642,M635,M639"
M642, "M641,M635,M639"
M647, "M648,M649,M650"
M648, "M649,M650,M651"
M649, "M650,M651,M655"
M650, "M651,M657,M653"
M651, "M657,M653,M654"
M652, "M653,M654,M655"
M653, "M647,M648,M649"
M654, "M648,M649,M650"
M655, "M649,M650,M651"
M657, "M649,,"
M658, "M657,M628,M660"
M659, "M534,M568,M661"
M660, "M518,M650,M657"
M661, "M630,M636,M517"
M704, "M713,M719,M720"
M705, "M706,M718,"
M706, "M704,M719,M720"
M708, "M709,M710,M711"
M709, "M710,M711,M712"
M710, "M711,M712,M713"
M711, "M712,M713,M714"
M712, "M713,M714,M715"
M713, "M714,M715,M716"
M714, "M715,M716,M717"
M715, "M708,M709,M710"
M716, "M710,M711,M712"
M717, "M711,M712,M713"
M718, "M719,M720,M704"
M719, "M718,M720,M741"
M720, "M718,M719,M726"
M721, "M706,M716,M713"
M723, "M724,M749,"
M724, "M723,M748,"
M725, "M726,M727,M704"
M726, "M725,M727,M706"
M727, "M725,M726,M718"
M738, "M743,M740,M748"
M739, "M738,M740,M756"
M740, "M738,M743,M757"
M741, "M742,M718,M719"
M742, "M741,M719,M720"
M744, "M748,M749,M750"
M745, "M752,M749,M748"
M748, "M853,M745,M001"
M749, "M743,M754,M751"
M750, "M754,M751,M752"
M751, "M749,M750,"
M752, "M753,M754,M745"
M753, "M754,M752,M931"
M754, "M751,M752,M753"
M755, "M756,M757,M759"
M756, "M759,M757,M766"
M757, "M755,M756,M759"
M758, "M755,M756,M757"
M759, "M756,M755,M757"
M760, "M767,M763,M768"
M761, "M756,M766,M762"
M762, "M766,M759,M761"
M763, "M758,M768,M659"
M764, "M760,M768,M763"
M766, "M767,M761,M757"
M767, "M757,M766,M760"
M768, "M764,M763,M758"
M800, "M828,M843,M854"
M805, "M844,M854,M843"
M806, "M805,M831,M832"
M808, "M809,M810,N151"
M809, "M808,M810,N158"
M810, "M808,M809,N159"
M811, "M813,M814,"
M813, "M826,M814,M843"
M814, "M811,M813,"
M818, "M819,M820,M821"
M819, "M820,M821,M826"
M820, "M821,M826,M824"
M821, "M824,,"
M824, "M825,M826,M820"
M825, "M820,M821,"
M826, "M820,M819,M824"
M828, "M830,M831,M832"
M830, "M831,M832,M828"
M831, "M832,M828,M830"
M832, "M830,M831,M828"
M834, "M843,M844,M851"
M838, "M819,M824,M826"
M843, "M844,M851,M854"
M844, "M854,M843,M851"
M851, "M843,M844,M854"
M853, "M854,M966,M922"
M854, "M853,M931,M915"
M858, "M859,M860,"
M859, "M860,M862,M830"
M860, "M858,M859,M862"
M862, "M859,M913,M919"
M900, "M912,M913,M914"
M909, "M710,M714,M908"
M912, "M533,M913,M915"
M913, "M855,M854,M976"
M914, "M912,M915,M913"
M915, "M912,M913,M854"
M916, "M608,M607,M967"
M919, "M920,M921,M922"
M920, "M921,M922,M915"
M921, "M919,M920,M913"
M922, "M913,M915,M912"
M923, "M924,M414,M745"
M924, "M923,M745,M921"
M931, "M926,M960,M962"
M932, "M966,M967,M968"
M960, "M961,M962,M969"
M961, "M960,M962,M969"
M962, "M969,M960,M961"
M964, "M967,M968,M921"
M967, "M968,M962,M921"
M968, "M967,M962,M919"
M969, "M960,M961,M962"
M970, "M969,M960,M961"
M974, "M931,M976,M968"
M975, "M974,M931,M966"
M976, "M931,M968,M970"
N015, "N016,N017,N018"
N016, "N015,N017,N018"
N017, "N018,N019,N020"
N018, "N016,N017,"
N020, "N015,N017,N018"
N028, "N029,M966,M967"
N029, "N028,M967,M966"
N100, "N101,N103,N151"
N101, "N100,N103,N151"
N102, "N103,M515,M924"
N103, "N101,N102,N151"
N151, "N103,N160,N156"
N152, "N155,N156,N157"
N155, "N156,N157,N158"
N156, "N158,N159,N160"
N157, "N158,N159,N160"
N158, "N155,N159,N157"
N159, "M809,N157,N158"
N160, "N157,N158,N159"
N206, "N207,N208,N209"
N207, "N206,N208,N209"
N208, "N206,N207,N209"
N209, "N206,N207,N209"
N300, "N344,N328,N416"
N301, "N376,N354,"
N302, "N358,N322,N315"
N304, "N305,N359,N348"
N305, "N304,N382,N359"
N306, "N342,N399,N316"
N307, "N385,N315,N347"
N315, "N329,N359,N316"
N316, "N342,N348,N329"
N322, "N316,N342,N348"
N324, "N325,N326,"
N325, "N324,N326,"
N326, "N324,N325,"
N329, "N342,N316,"
N342, "N322,N316,N329"
N344, "N300,N413,N383"
N347, "N385,N316,N359"
N348, "N316,N342,"
N359, "N316,N348,N342"
N360, "N322,N316,N306"
N362, "N302,N413,"
N363, "N307,N415,"
N385, "N316,N359,N347"
N386, "N307,N315,"
N389, "N412,N302,N400"
N400, "N304,N302,N306"
N412, "N389,N415,N413"
N413, "N412,N385,N306"
N415, "N389,N412,N413"
N419, "N420,N421,"
N420, "N419,N421,N307"
N421, "N420,N419,N400"
P016, "P038,P040,"
P018, "P016,P036,"
P019, "P838,P016,"
P022, "P031,P016,P039"
P100, "P122,P107,P111"
P107, "P111,P106,"
P108, "P116,P106,"
P111, "P116,P106,"
P116, "P106,,"
P117, "P125,P116,"
P118, "P108,P106,"
P119, "P107,P108,"
P120, "P688,P118,P125"
P122, "P107,P111,P106"
P123, "P118,P324,"
P125, "P116,P106,"
P127, "P125,P116,"
P227, "P284,P274,C34-3579"
P232, "P417,P411,P274"
P237, "P608,P804,P249"
P250, "P284,P411,P274"
P259, "P817,B9-3601,9061"
P269, "X334,C51-3518,2463"
P270, "X906,2452,2455"
P272, "04-G1,P244,"
P274, "C34-3579,C27-3489,FMOR"
P275, "P647,C35-2943,P663"
P280, "P417,P411,P274"
P284, "P411,P274,FMOR"
P291, "P517,C32-3784,"
P292, "P690,P322,"
P294, "P846,C32-3784,"
P297, "2489,2492,2440"
P298, "2496,2491,2439"
P303, "P326,P847,P401"
P314, "C39-2942,,"
P316, "P108,P106,"
P317, "P127,P118,P111"
P321, "F644,G530,F870"
P322, "F870,H062,F643"
P324, "P108,P106,"
P327, "P853,H063,F648"
P348, "P354,P907,TP81"
P353, "P348,P354,TP81"
P403, "P427,P913,P804"
P406, "P653,P294,06-M4"
P409, "CP,P244,C38-2965"
P411, "P274,C34-3579,FMOR"
P414, "P417,P411,P274"
P416, "C34-3579,C27-3489,FMOR"
P417, "P411,P274,FMOR"
P418, "P673,P692,"
P422, "FFSD,G530,P322"
P426, "P804,P913,P906"
P427, "P804,P913,"
P429, "P804,P913,P906"
P435, "P860,P401,"
P500, "P804,P692,P663"
P511, "P500,P846,P692"
P517, "06-M4,P692,P663"
P635, "P804,P817,04-C2"
P647, "P401,P274,"
P653, "P294,P517,0PRB"
P672, "P804,P504,P838"
P675, "P300,P503,B9-3601"
P676, "P429,P804,P913"
P682, "07-G1,B2-2901,T609"
P685, "06-V2,BP,BB32"
P686, "CNG,P804,0YRB"
P691, "P416,C34-3579,FMOR"
P692, "P663,PM00,"
P693, "P804,P913,P647"
P697, "P653,P294,P846"
P704, "P426,P804,P913"
P804, "P913,F416,"
P817, "P840,C1-AL,P306"
P838, "P851,P249,"
P846, "06-M4,P692,P663"
P849, "G530,F442,F643"
P850, "P692,P663,PM00"
P852, "P326,P316,"
P856, "P411,P274,"
P857, "P123,P856,P401"
P858, "P123,P856,"
P859, "P920,TP66,"
P913, "F877,F469,F468"
R226, "f140,8218,8224"
R539, "R565,,"
RRBB, "9153,CT15,P659"
S030, "X241,X265,X155"
S32-3169, "S10-3442,S16-3164,S21-3156"
S38-3813, "C15-3112,S37-3115,C20-3118"
S38-3815, "S38-3813,C35-2943,S37-3115"
S502, "W201,W202,"
S529, "X456,W204,"
S530, "S529,5G12,S502"
SDB, "P298,C51-3481,BY92"
SDG, "P297,C51-3748,C51-3521"
SF01, "SF03,,"
SF02, "SF14,2731,"
SF05, "SF07,,"
SF08, "SF05,SF11,"
SF09, "SF12,,"
SF10, "SF05,SF07,"
SF12, "SF14,SF09,"
SF13, "SF10,SF12,"
SF14, "SF12,SF09,"
SF15, "SF13,SF04,"
SMRB, "F493,FFF2,"
SRY, "C22-3062,C10-3474,"
SUN, "B23-3743,PMU,T525"
T4-ABCE, "8912,2515,8924"
T501, "T513,,"
T502, "T510,T508,"
T504, "T509,T501,"
T505, "T513,,"
T506, "T518,T520,"
T508, "T505,T513,"
T509, "T501,T513,"
T510, "T508,T513,"
T511, "T521,T500,"
T512, "T510,T553,"
T514, "T509,T505,"
T516, "T504,T501,"
T517, "T518,T520,"
T519, "T508,T523,T509"
T521, "T525,T518,"
T523, "T518,T520,"
T524, "T517,T518,"
T525, "T518,T520,"
T528, "T518,T520,"
T540, "T506,,T528"
T548, "T558,T555,T568"
T556, "T568,W225,"
T557, "T591,T558,T555"
T558, "T555,T568,T556"
T559, "T556,T589,T555"
T568, "T591,,"
T570, "T559,T556,T589"
T583, "T589,T568,"
T584, "T568,T597,T520"
T591, "T559,T555,T568"
T596, "T582,B22-3265,"
T598, "T586,T525,"
T607, "TP24,T608,T539"
T609, "T646,T539,"
T646, "T539,,"
T668, "T632,T555,"
TAB, "BH,C10-3474,6027"
THX, "C13-3065,C21-3122,6027"
TT01, "T512,T510,,T500"
TY, "07-E3,0PRB,"
V850, "V851,V852,V854"
V851, "V852,V854,"
V853, "V857,V854,V852"
V855, "V856,V858,"
V857, "V854,V852,"
V859, "V861,VP01,V868"
V860, "V851,V883,"
W030, "W027,W034,E040"
W034, "2815,E040,W027"
W037, "W033,W034,W035"
W204, "W201,W206,W202"
W226, "W227,W607,W202"
W227, "W607,,"
W606, "W611,W607,"
X014, "0BBG,X700,2497"
X015, "0BBG,X701,BY88"
X018, "X050,7X18,X726"
X022, "2201,X669,2240"
X038, "X018,X050,7X18"
X050, "7X18,F468,"
X058, "X342,X092,X156"
X092, "X109,X247,X098"
X098, "X155,S031,B518"
X109, "X051,X098,B202"
X138, "X092,X200,X206"
X144, "X342,X058,8912"
X154, "X165,X155,8912"
X155, "G819,X262,B209"
X156, "X246,X247,X154"
X157, "X158,B527,"
X162, "X164,B520,"
X163, "X164,X165,"
X164, "G531,B520,"
X165, "B513,8912,B513"
X173, "B535,B529,"
X178, "X018,X154,X155"
X193, "P657,A15-TAB,B512"
X200, "X155,X154,X247"
X205, "X207,X200,X224"
X206, "X207,X200,X224"
X207, "X205,X200,X156"
X224, "X109,X092,X098"
X234, "X050,X018,8912"
X236, "C191,X200,X247"
X241, "X155,X050,B518"
X243, "X965,X966,X186"
X246, "X247,X200,X050"
X247, "X246,X200,8912"
X267, "W226,W227,"
X318, "X604,2129,C10-3474"
X324, "2439,2440,H045"
X342, "X344,X079,X343"
X382, "X390,X352,6X74"
X395, "X393,B209,B211"
X418, "X241,8912,"
X441, "X442,X376,"
X446, "X734,X439,"
X453, "X382,X390,X352"
X456, "3X42,X379,X458"
X520, "X532,X524,X533"
X521, "XX55,D026,,BB32"
X523, "P685,BB32,"
X524, "B200,2056,"
X529, "X544,X352,X353"
X531, "X050,X018,X092"
X532, "X050,X018,X092"
X533, "X200,X524,X247"
X535, "X532,X524,X533"
X541, "X532,X524,X533"
X547, "C236,06-S1,TY"
X550, "6X39,XX55,BB32"
X557, "X265,X155,B518"
X604, "B3-3449,B507,2129"
X605, "A15-TAB,P657,X193"
X649, "X050,BB39,X155"
X669, "X165,X346,X344"
X673, "X382,X352,6X74"
X696, "X697,X669,"
X700, "H045,2493,"
X701, "X700,H045,2493"
X755, "X711,B209,6X74"
X801, "6X39,XX55,D026"
X804, "X822,X814,8912"
X811, "X050,X018,8912"
X814, "X822,8912,X811"
X821, "X822,X050,X520"
X822, "X241,X155,8912"
X867, "BB02,X050,X018"
X872, "X050,BB02,BB19"
X873, "X050,BB02,BB19"
X927, "8912,9027,X932"
X928, "X930,9027,X155"
X929, "X932,X928,8912"
X930, "X928,X931,X927"
X931, "X928,X927,X932"
X932, "X928,X018,9027"
X933, "X931,X927,X932"
XX-6106, "CP,P401,"
XX04, "X018,B210,X360"
XX55, "D025,BB32,06-V2"
XYZZ, "BB,,"
YY52, "FF67,0YRB,D5-3766"
YYCB, "FPPR,FF02,B23-3743"
ZZ08, "C12-3005,F063,FF03"
ZZ10, "ZZ25,ZZ09,ZZ11"
ZZ25, "ZZ09,ZZ11,ZZ10"
