-----BEGIN PGP PUBLIC KEY BLOCK-----
Version: BCPG v1.33

mI0ERJLY9wEEAIijHKf6qQZq3KjrnRIqLFtF0wkvIKVXQXdcY7esOZy8oDoZ9cue
Rieszi3zIM38xB9ozhgOVhA8zTlhg/7TTKT12p8jQ7TrssumEyqTJAcpJXmTBFqD
7NvAox7biEimIBxjEWr8m4nGixBqHyYr3bVDxmZJQkrHLW3tH70nqSp7ABEBAAG0
CmZ0ZGNvbXRlc3SInAQQAQIAEAUCRJLY9wkQ48IYQPXEJ+8AAK5gA/4jfZaHEMHF
08IhesEGy76HGYagL5YLJcMOMZM84Kg+alljt0CpI48QPsBZXngPfj7KNx8Glp4B
FMRwU0WEL63SQ9+d08Hq9Am8sEjF9vvpBGI4k2EsulA43oncu50Bny1HowSELM3j
Js3dW2NWwFHNFWtPjrkVwejqOjf2pOewyA==
=20fZ
-----END PGP PUBLIC KEY BLOCK-----
