old   3: where  owner = upper('&&schema_owner')
new   3: where  owner = upper('ftd_apps')

VIEW_NAME                      TEXT
------------------------------ --------------------------------------------------------------------------------
INDEX_SUBINDEX_CNT_VW          select parent_index_id, count(*)
                               from product_index
                               group by parent_index_id

KEY_COLUMNS                    SELECT AC.Owner Table_Owner, AC.Table_Name,
                                   AC.Constraint_Type, ACC.Column_Name, ACC.Position
                               	  FROM All_Constraints AC, All_Cons_Columns ACC
                               	  WHERE AC.Constraint_Name = ACC.Constraint_Name
                               	  AND AC.Constraint_Type IN ('P', 'R')

OE_PRODUCT_COUNT_BY_INDEX      SELECT pix.product_index_id, count(*)
                               FROM product_index_xref pix
                               GROUP BY pix.product_index_id WITH READ ONLY

PRODUCT_COLORS_CNT_VW          select pc.product_id, count(*)
                               from product_colors pc
                               group by pc.product_id

PRODUCT_COLORS_LIST_VW         select pc.product_id, cm.description,
                                      count(*) color_rank
                               from product_colors pc, product_colors pc2, color_master cm
                               where pc2.product_id = pc.product_id
                               and pc2.product_color <= pc.product_color
                               and pc.product_color = cm.color_master_id
                               group by pc.product_id, cm.description

PRODUCT_DELIVERY_LIST_VW       select psm.product_id, skd.shipping_key_id,
                                      skd.shipping_detail_id,
                                      skd.min_price, skd.max_price,
                                      sm.description as shipping_method,
                                      sm.ship_method_id as shipping_method_id, sc.shipping_cost,
                                      count(*) ship_method_rank
                               from shipping_key_details skd, ship_methods sm,
                                    product_ship_methods psm, product_ship_methods psm2,
                                    shipping_key_costs sc, shipping_key_costs sc2
                               where psm2.product_id = psm.product_id
                               and sc.shipping_key_detail_id = skd.shipping_detail_id
                               and sc.shipping_method_id = psm.ship_method_id
                               and sc.shipping_method_id = sm.ship_method_id
                               and sc2.shipping_key_detail_id = skd.shipping_detail_id
                               and sc2.shipping_method_id = psm2.ship_method_id
                               and sc2.shipping_cost <= sc.shipping_cost
                               group by psm.product_id, skd.shipping_key_id, skd.shipping_detail_id,
                                   skd.min_price, skd.max_price,
                                   sm.description, sm.ship_method_id, sc.shipping_cost

PRODUCT_INDEX_XREF_VW          SELECT px.product_index_id,
                                DECODE(ud.upsell_detail_id, NULL, px.product_id, ud.upsell_detail_id) AS "PRODU
                               CT_ID",
                                px.mapped_index_id,
                                px.display_order,
                                um.upsell_master_id,
                                um.upsell_name,
                                um.upsell_description
                               FROM PRODUCT_INDEX_XREF px, UPSELL_MASTER um, UPSELL_DETAIL ud
                                WHERE px.product_id = um.upsell_master_id (+)
                                 AND um.upsell_master_id = ud.upsell_master_id (+)
                                 AND 1 = ud.upsell_detail_sequence (+)
                                 AND 'Y' = um.upsell_status (+) WITH READ ONLY

PRODUCT_MASTER_VW              SELECT pm.NOVATOR_ID AS "PRODUCT_ID",
                                      pm.PRODUCT_ID AS "PRODUCT_DETAIL_ID",
                                      'N' AS "UPSELL_PRODUCT_FLAG",
                                      NULL AS "UPSELL_NAME",
                                      NULL AS "UPSELL_DESC",
                                      NULL AS "UPSELL_SEARCH_PRIORITY"
                               FROM   PRODUCT_MASTER pm
                               UNION ALL
                               SELECT um.UPSELL_MASTER_ID AS "PRODUCT_ID",
                                      ud.UPSELL_DETAIL_ID AS "PRODUCT_DETAIL_ID",
                                      'Y' AS "UPSELL_PRODUCT_FLAG",
                                      um.UPSELL_NAME AS "UPSELL_NAME",
                                      um.UPSELL_DESCRIPTION AS "UPSELL_DESC",
                                      um.SEARCH_PRIORITY AS "UPSELL_SEARCH_PRIORITY"
                               FROM   PRODUCT_MASTER pm, UPSELL_MASTER um, UPSELL_DETAIL ud
                               WHERE  um.UPSELL_MASTER_ID = ud.UPSELL_MASTER_ID
                               AND    ud.UPSELL_DETAIL_ID = pm.PRODUCT_ID
                               AND    1 = ud.UPSELL_DETAIL_SEQUENCE
                               AND    'Y' = um.UPSELL_STATUS
                               WITH READ ONLY

PRODUCT_SHIPMETHODS_CNT_VW     select psm.product_id, count(*)
                               from product_ship_methods psm
                               group by psm.product_id

VENDOR_DELIV_BLOCK_CNT_VW      select vdr.vendor_id, count(*)
                               from vendor_delivery_restrictions vdr
                               group by vdr.vendor_id

VENDOR_DELIV_BLOCK_LIST_VW     select vdr.vendor_id, vdr.start_date, vdr.end_date,
                                      count(*) delivery_block_rank
                               from vendor_delivery_restrictions vdr, vendor_delivery_restrictions vdr2
                               where vdr2.vendor_id = vdr.vendor_id
                               and vdr2.start_date <= vdr.start_date
                               group by vdr.vendor_id, vdr.start_date, vdr.end_date

VENDOR_SHIP_BLOCK_CNT_VW       select vsr.vendor_id, count(*)
                               from vendor_shipping_restrictions vsr
                               group by vsr.vendor_id

VENDOR_SHIP_BLOCK_LIST_VW      select vsr.vendor_id, vsr.start_date, vsr.end_date,
                                      count(*) ship_block_rank
                               from vendor_shipping_restrictions vsr, vendor_shipping_restrictions vsr2
                               where vsr2.vendor_id = vsr.vendor_id
                               and vsr2.start_date <= vsr.start_date
                               group by vsr.vendor_id, vsr.start_date, vsr.end_date


13 rows selected.

