old   3: where  i.owner = upper('&&schema_owner')
new   3: where  i.owner = upper('ftd_apps')

TABLE_OWNER                    TABLE_NAME                     INDEX_NAME                     COLUMN_NAME
------------------------------ ------------------------------ ------------------------------ ------------------------------
FTD_APPS                       AAA_MEMBERS                    AAA_MEMBERS_PK                 AAA_MEMBER_ID
FTD_APPS                       ADDON                          ADDON_PK                       ADDON_ID
FTD_APPS                       ADDON_TYPE                     SYS_C0083393                   ADDON_TYPE_ID
FTD_APPS                       BILLING_INFO                   BILLING_INFO_PK                SOURCE_CODE_ID
FTD_APPS                       BILLING_INFO                   BILLING_INFO_PK                BILLING_INFO_SEQUENCE
FTD_APPS                       BILLING_INFO_OPTIONS           BILLING_INFO_OPTIONS_PK        SOURCE_CODE_ID
FTD_APPS                       BILLING_INFO_OPTIONS           BILLING_INFO_OPTIONS_PK        BILLING_INFO_DESC
FTD_APPS                       BILLING_INFO_OPTIONS           BILLING_INFO_OPTIONS_PK        OPTION_VALUE
FTD_APPS                       BUSINESS                       BUSINESS_PK                    BUSINESS_ID
FTD_APPS                       CALL_CENTER                    CALL_CENTER_PK                 CALL_CENTER_ID
FTD_APPS                       CARRIER_INFO                   CARRIER_INFO_PK                CARRIER_ID
FTD_APPS                       CODIFIED_PRODUCTS              CODIFIED_PRODUCTS_PK           PRODUCT_ID
FTD_APPS                       COLOR_MASTER                   COLOR_MASTER_PK                COLOR_MASTER_ID
FTD_APPS                       COMPANY                        COMPANY_PK                     COMPANY_ID
FTD_APPS                       COMPANY_MASTER                 COMPANY_MASTER_PK              COMPANY_ID
FTD_APPS                       COST_CENTER_IDS                COST_CENTER_IDS_PK             COST_CENTER_ID
FTD_APPS                       COUNTRY_KEYS                   COUNTRY_KEYS_PK                COUNTRY_ID
FTD_APPS                       COUNTRY_MASTER                 COUNTRY_MASTER_PK              NAME
FTD_APPS                       CPC_INFO                       CPC_INFO_PK                    SOURCE_CODE_ID
FTD_APPS                       CPN_MAP                        CPN_MAP_PK                     SOURCE_CODE
FTD_APPS                       CPN_MAP                        CPN_MAP_PK                     PRODUCT_ID
FTD_APPS                       CSZ_AVAIL                      CSZ_AVAIL_PK                   CSZ_ZIP_CODE
FTD_APPS                       CSZ_PRODUCTS                   CSZ_PRODUCTS_PK                ZIP_CODE
FTD_APPS                       CSZ_PRODUCTS                   CSZ_PRODUCTS_PK                PRODUCT_ID
FTD_APPS                       CUSTOMER                       CUSTOMER_N01                   HOME_PHONE
FTD_APPS                       CUSTOMER                       CUSTOMER_N02                   WORK_PHONE
FTD_APPS                       CUSTOMER                       JCB_TMP                        FIRST_NAME
FTD_APPS                       CUSTOMER                       JCB_TMP                        LAST_NAME
FTD_APPS                       CUSTOMER                       JCB_TMP                        ADDRESS_1
FTD_APPS                       CUSTOMER                       JCB_TMP                        ZIP_CODE
FTD_APPS                       CUSTOMER                       SYS_C0083412                   CUSTOMER_ID
FTD_APPS                       DELIVERY_DATE_RANGE            DELIVERY_DATE_RANGE_N01        ACTIVE_FLAG
FTD_APPS                       DELIVERY_DATE_RANGE            DELIVERY_DATE_RANGE_PK         START_DATE
FTD_APPS                       DELIVERY_DATE_RANGE            DELIVERY_DATE_RANGE_PK         END_DATE
FTD_APPS                       DNIS                           DNIS_N1                        SCRIPT_ID
FTD_APPS                       DNIS                           DNIS_PK                        DNIS_ID
FTD_APPS                       FLORIST_BLOCKS                 FLORIST_BLOCK_PK61038328068201 FLORIST_ID
FTD_APPS                       FLORIST_MASTER                 FLORIST_MASTER_N01             DELIVERY_CITY
FTD_APPS                       FLORIST_MASTER                 FLORIST_MASTER_N01             DELIVERY_STATE
FTD_APPS                       FLORIST_MASTER                 FLORIST_MASTER_PK              FLORIST_ID
FTD_APPS                       FLORIST_PRODUCTS               FLORIST_PRODUCTS_UK1           FLORIST_ID
FTD_APPS                       FLORIST_PRODUCTS               FLORIST_PRODUCTS_UK1           PRODUCT_ID
FTD_APPS                       FLORIST_ZIPS                   FLORIST_ZIPS_N01               ZIP_CODE
FTD_APPS                       FLORIST_ZIPS                   FLORIST_ZIPS_UK1               FLORIST_ID
FTD_APPS                       FLORIST_ZIPS                   FLORIST_ZIPS_UK1               ZIP_CODE
FTD_APPS                       FLOWERS                        SYS_C0083420                   FLOWER_ID
FTD_APPS                       FUNCTIONS                      FUNCTIONS_PK                   FUNCTION_ID
FTD_APPS                       GIFT_CERTIFICATE_MASTER        GIFT_CERTIFICATE_MASTER_PK     GIFT_CERTIFICATE_ID
FTD_APPS                       GIFT_MESSAGE_SHORTCUTS         PK_GIFT_MESSAGE_SHORTCUTS      GIFT_MESSAGE_ID
FTD_APPS                       GLOBAL_PARMS                   GLOBAL_PARMS_PK                GLOBAL_PARMS_KEY
FTD_APPS                       HOLIDAY_CALENDAR               HOLIDAY_CALENDAR_PK            HOLIDAY_DATE
FTD_APPS                       HOLIDAY_COUNTRY                HOLIDAY_COUNTRY_PK             HOLIDAY_DATE
FTD_APPS                       HOLIDAY_COUNTRY                HOLIDAY_COUNTRY_PK             COUNTRY_ID
FTD_APPS                       HOLIDAY_PRICING                SYS_C0083431                   START_DATE
FTD_APPS                       JCPENNEY_CATEGORY              SYS_C0083432                   CATEGORY_ID
FTD_APPS                       LOAD_PROD_INDEX_PRODUCT        LOAD_PRODUCT_INDEX_PRODUCT_IDX INDEX_ID
FTD_APPS                       LOAD_PROD_INDEX_PRODUCT        LOAD_PRODUCT_INDEX_PRODUCT_IDX LOOKUP_PRODUCT_ID
FTD_APPS                       OCCASION                       OCCASION_PK_1                  OCCASION_ID
FTD_APPS                       OCCASION_ADDON                 SYS_C0083437                   OCCASION_ID
FTD_APPS                       OCCASION_ADDON                 SYS_C0083437                   ADDON_ID
FTD_APPS                       ORDERS                         ORDERS_PK                      DETAIL_ORDER_NUMBER
FTD_APPS                       ORDERS_ARCHIVE                 ORDERS_PK_1                    DETAIL_ORDER_NUMBER
FTD_APPS                       ORDER_BLOB                     ORDER_BLOB_N1                  STATUS
FTD_APPS                       ORDER_BLOB                     ORDER_BLOB_PK                  FTD_GUID
FTD_APPS                       ORDER_BLOB                     ORDER_BLOB_PK                  ORDER_TIMESTAMP
FTD_APPS                       ORDER_BLOB_ARCHIVE             ORDER_BLOB_PK_1                FTD_GUID
FTD_APPS                       ORDER_BLOB_ARCHIVE             ORDER_BLOB_PK_1                ORDER_TIMESTAMP
FTD_APPS                       ORDER_SEQUENCE_DISCARD         ORDER_SEQUENCE_DISCARD_PK      ORDER_SEQUENCE
FTD_APPS                       ORDER_SEQ_NUMBERS              ORDER_SEQ_NUMBERS_N01          STATUS
FTD_APPS                       ORDER_SEQ_NUMBERS              ORDER_SEQ_NUMBERS_N01          ORDER_SEQUENCE
FTD_APPS                       ORDER_SEQ_NUMBERS              ORDER_SEQ_NUMBERS_PK           ORDER_SEQUENCE
FTD_APPS                       PARTNERS                       PARTNERS_PK                    PARTNER_ID
FTD_APPS                       PAYMENT_METHODS                PAYMENT_METHODS_PK             PAYMENT_METHOD_ID
FTD_APPS                       PRICE                          PRICE_UK                       PRICE_HEADER_ID
FTD_APPS                       PRICE                          PRICE_UK                       PRODUCT_SIZE
FTD_APPS                       PRICE                          PRICE_UK                       PRODUCT_ID
FTD_APPS                       PRICE_HEADER                   PRICE_HEADER_PK                PRICE_HEADER_ID
FTD_APPS                       PRICE_HEADER_DETAILS           PRICE_HEADER_DETAILS_UK        PRICE_HEADER_ID
FTD_APPS                       PRICE_HEADER_DETAILS           PRICE_HEADER_DETAILS_UK        MIN_DOLLAR_AMT
FTD_APPS                       PRODUCT_CATEGORY               PRODUCT_CATEGORY_PK            PRODUCT_CATEGORY_ID
FTD_APPS                       PRODUCT_COLORS                 PRODUCT_COLORS_UK1             PRODUCT_ID
FTD_APPS                       PRODUCT_COLORS                 PRODUCT_COLORS_UK1             PRODUCT_COLOR
FTD_APPS                       PRODUCT_EXCLUDED_STATES        PRODUCT_EXCLUDE_STATE_UK1      PRODUCT_ID
FTD_APPS                       PRODUCT_EXCLUDED_STATES        PRODUCT_EXCLUDE_STATE_UK1      EXCLUDED_STATE
FTD_APPS                       PRODUCT_HP                     PRODUCT_HP_PK                  PRODUCT_ID
FTD_APPS                       PRODUCT_INDEX                  PRODUCT_INDEX_N01              PARENT_INDEX_ID
FTD_APPS                       PRODUCT_INDEX                  PRODUCT_INDEX_PK               INDEX_ID
FTD_APPS                       PRODUCT_INDEX                  PRODUCT_INDEX_UK1              INDEX_FILE_NAME
FTD_APPS                       PRODUCT_INDEX_XREF             PRODUCT_INDEX_XREF_PK          PRODUCT_INDEX_ID
FTD_APPS                       PRODUCT_INDEX_XREF             PRODUCT_INDEX_XREF_PK          PRODUCT_ID
FTD_APPS                       PRODUCT_MASTER                 PRODUCT_MASTER_N1              COMPANY_ID
FTD_APPS                       PRODUCT_MASTER                 PRODUCT_MASTER_PK              PRODUCT_ID
FTD_APPS                       PRODUCT_MASTER                 PRODUCT_MASTER_UK1             NOVATOR_ID
FTD_APPS                       PRODUCT_RECIPIENT_SEARCH       SYS_C0083464                   PRODUCT_ID
FTD_APPS                       PRODUCT_RECIPIENT_SEARCH       SYS_C0083464                   RECIPIENT_SEARCH_ID
FTD_APPS                       PRODUCT_SECOND_CHOICE          PRODUCT_SECOND_CHOICE_PK       PRODUCT_SECOND_CHOICE_ID
FTD_APPS                       PRODUCT_SHIP_DATES             PRODUCT_SHIP_DATES_PK          PRODUCT_ID
FTD_APPS                       PRODUCT_SHIP_METHODS           PRODUCT_SHIP_METHODS_UK1       PRODUCT_ID
FTD_APPS                       PRODUCT_SHIP_METHODS           PRODUCT_SHIP_METHODS_UK1       SHIP_METHOD_ID
FTD_APPS                       PRODUCT_SUBCODES               PRODUCT_SUBCODE_PK1            PRODUCT_ID
FTD_APPS                       PRODUCT_SUBCODES               PRODUCT_SUBCODE_PK1            PRODUCT_SUBCODE_ID
FTD_APPS                       PRODUCT_SUB_TYPES              PRODUCT_SUB_T_PK51033501840187 SUB_TYPE_ID
FTD_APPS                       PRODUCT_SUB_TYPES              PRODUCT_SUB_T_PK51033501840187 SUB_TYPE_DESCRIPTION
FTD_APPS                       PRODUCT_SUB_TYPES              PRODUCT_SUB_T_PK51033501840187 TYPE_ID
FTD_APPS                       PRODUCT_TYPES                  PRODUCT_TYPES_PK31031350185343 TYPE_ID
FTD_APPS                       PRODUCT_XREF                   PRODUCT_XREF_PK                PRODUCT_XREF_ID
FTD_APPS                       PROMOTION_PROGRAMS             SYS_C0083473                   PROMOTION_ID
FTD_APPS                       PROMOTION_PROGRAMS             SYS_C0083473                   MIN_PRICE
FTD_APPS                       RECIPIENT_SEARCH_MASTER        SYS_C0083474                   RECIPIENT_SEARCH_ID
FTD_APPS                       ROLE                           ROLE_PK                        ROLE_ID
FTD_APPS                       ROLE_FUNCTIONS                 ROLE_FUNCTION_PK               ROLE_ID
FTD_APPS                       ROLE_FUNCTIONS                 ROLE_FUNCTION_PK               FUNCTION_ID
FTD_APPS                       SCRIPTING                      SCRIPTING_N1                   SCRIPT_ID
FTD_APPS                       SCRIPTING                      SCRIPTING_PK                   PAGE_NAME
FTD_APPS                       SCRIPTING                      SCRIPTING_PK                   FIELD_NAME
FTD_APPS                       SCRIPTING                      SCRIPTING_PK                   COMPANY_ID
FTD_APPS                       SCRIPTING_OVERRIDE             SCRIPTING_OVERRIDE_PK          TRIGGER_ID
FTD_APPS                       SCRIPTING_OVERRIDE             SCRIPTING_OVERRIDE_PK          PAGE_NAME
FTD_APPS                       SCRIPTING_OVERRIDE             SCRIPTING_OVERRIDE_PK          FIELD_NAME
FTD_APPS                       SCRIPT_MASTER                  SCRIPT_MASTER_PK               SCRIPT_MASTER_ID
FTD_APPS                       SECURITY_CERT                  SECURITY_PK1                   USER_ID
FTD_APPS                       SERVER_STATS                   SERVER_STATS_PK                SERVER_STATS_ID
FTD_APPS                       SESSION_ADD_ON                 SESSION_ADD_ON_PK              CART_NUMBER
FTD_APPS                       SESSION_ADD_ON                 SESSION_ADD_ON_PK              PERSISTENCE_ID
FTD_APPS                       SESSION_ADD_ON                 SESSION_ADD_ON_PK              ORDER_ID
FTD_APPS                       SESSION_CUSTOMER               SESSION_CUSTOMER_PK            CUSTOMER_ID
FTD_APPS                       SESSION_ITEM                   SESSION_ITEM_PK                ORDER_ID
FTD_APPS                       SESSION_ITEM                   SESSION_ITEM_PK                CART_NUMBER
FTD_APPS                       SESSION_ITEM                   SESSION_ITEM_U01               SEND_TO_ID
FTD_APPS                       SESSION_MAP_STORE              SESSION_MAP_STORE_PK           ORDER_ID
FTD_APPS                       SESSION_MAP_STORE              SESSION_MAP_STORE_PK           PERSISTENCE_ID
FTD_APPS                       SESSION_ORDER                  SESSION_ORDER_PK               ORDER_ID
FTD_APPS                       SESSION_ORDER                  SESSION_ORDER_U01              BILL_TO_ID
FTD_APPS                       SESSION_ORDER                  SESSION_ORDER_U02              SEND_TO_ID
FTD_APPS                       SESSION_PROMOTION              SESSION_PROMOTION_PK           ORDER_ID
FTD_APPS                       SESSION_PROMOTION              SESSION_PROMOTION_PK           PERSISTENCE_ID
FTD_APPS                       SHIPPING_KEYS                  SHIPPING_KEYS_PK31031956038406 SHIPPING_KEY_ID
FTD_APPS                       SHIPPING_KEY_COSTS             SHIPPING_KEY_COSTS_PK          SHIPPING_KEY_DETAIL_ID
FTD_APPS                       SHIPPING_KEY_COSTS             SHIPPING_KEY_COSTS_PK          SHIPPING_METHOD_ID
FTD_APPS                       SHIPPING_KEY_DETAILS           SHIPPING_KEY_DETAILS_PK        SHIPPING_DETAIL_ID
FTD_APPS                       SHIPPING_KEY_DETAILS           SHIPPING_KEY_DETAILS_UK1       SHIPPING_KEY_ID
FTD_APPS                       SHIPPING_KEY_DETAILS           SHIPPING_KEY_DETAILS_UK1       MIN_PRICE
FTD_APPS                       SHIP_METHODS                   SHIP_METHOD_PK                 SHIP_METHOD_ID
FTD_APPS                       SNH                            SNH_PK                         SNH_ID
FTD_APPS                       SOURCE                         SOURCE_N1                      COMPANY_ID
FTD_APPS                       SOURCE                         SOURCE_PK                      SOURCE_CODE
FTD_APPS                       STATE_MASTER                   STATE_MASTER_PK                STATE_MASTER_ID
FTD_APPS                       TOAD_PLAN_SQL                  TPSQL_IDX                      STATEMENT_ID
FTD_APPS                       TOAD_PLAN_TABLE                TPTBL_IDX                      STATEMENT_ID
FTD_APPS                       UPSELL_DETAIL                  UPSELL_DETAIL_UK1              UPSELL_DETAIL_ID
FTD_APPS                       UPSELL_DETAIL                  UPSELL_DETAIL_UK1              UPSELL_MASTER_ID
FTD_APPS                       UPSELL_MASTER                  UPSELL_MASTER_PK               UPSELL_MASTER_ID
FTD_APPS                       USER_PROFILE                   SYS_C0072450_1                 USER_ID
FTD_APPS                       VENDOR_DELIVERY_RESTRICTIONS   VENDOR_DEL_RESTRICTIONS_UK1    VENDOR_ID
FTD_APPS                       VENDOR_DELIVERY_RESTRICTIONS   VENDOR_DEL_RESTRICTIONS_UK1    START_DATE
FTD_APPS                       VENDOR_MASTER                  VENDOR_MASTER_PK               VENDOR_ID
FTD_APPS                       VENDOR_SHIPPING_RESTRICTIONS   VENDOR_SHIP_RESTRICTIONS_UK1   VENDOR_ID
FTD_APPS                       VENDOR_SHIPPING_RESTRICTIONS   VENDOR_SHIP_RESTRICTIONS_UK1   START_DATE
FTD_APPS                       ZIP_CODE                       ZIP_CODE_N01                   CITY
FTD_APPS                       ZIP_CODE                       ZIP_CODE_N01                   STATE_ID
FTD_APPS                       ZIP_CODE                       ZIP_CODE_PK                    ZIP_CODE_ID
FTD_APPS                       ZIP_CODE                       ZIP_CODE_PK                    CITY

162 rows selected.

